{
    "executionNodeId": -1,
    "timeStamp": 0,
    "nodes": [
      {
        "descriptor": true,
        "title": "Widget2",
        "nodeId": 1,
        "d2dId": "a58815fa-c8d0-43ab-eedc-2d5836fc333f",
        "nodeClass": "TestClass",
        "type": "W",
        "x": 366.265625,
        "y": 312.5546875,
        "parameters": [
          "parameter1",
          "patameter2"
        ],
        "inputs": [
          {
            "title": "input1",
            "id": 98
          },
          {
            "title": "input2",
            "id": 99
          }
        ],
        "outputs": [
          {
            "title": "output1",
            "id": 69
          }
        ]
      },
      {
        "descriptor": true,
        "title": "Widget3",
        "nodeId": 2,
        "d2dId": "ddb32afc-4908-d223-031d-298db1270eb3",
        "nodeClass": "TestClass",
        "type": "W",
        "x": 127.265625,
        "y": 356.5546875,
        "parameters": [
          "parameter1",
          "patameter2"
        ],
        "inputs": [
          {
            "title": "input1",
            "id": 98
          },
          {
            "title": "input2",
            "id": 99
          }
        ],
        "outputs": [
          {
            "title": "output1",
            "id": 69
          }
        ]
      }
    ],
    "connections": [
      {
        "connectionId": 3,
        "from": {
          "nodeId": 2,
          "portId": 69,
          "name": "output1"
        },
        "to": {
          "nodeId": 1,
          "portId": 99,
          "name": "input2"
        }
      }
    ],
    "parameters": [
        {
            "nodeId": 1,
            "parameterId": "parameter1",
            "value": "0.07834778344324"
        },
        {
            "nodeId": 1,
            "parameterId": "parameter2",
            "value": {
                "nodeId": 2,
                "parameterId": "parameter1"
            }
        }
    ]
}